Benzo-opioid v2 analysis
…
# A tibble: 54 x 7
   lga   lga_name                    seifa     urbanization    ddd supply_year  lote
   <chr> <chr>                       <ord>     <fct>         <dbl>       <int> <dbl>
 1 35780 Northern Peninsula Area (R) Least     Rural         0.917        2011  76.3
 2 36950 Torres (S)                  Least     Rural        12.1          2011  39.5
 3 31000 Brisbane (C)                Very High Urban        26.1          2011  18.5
 4 34590 Logan (C)                   Moderate  Urban        41.0          2011  12.8
 5 30900 Boulia (S)                  Least     Rural        12.9          2011  10.2
 6 33430 Gold Coast (C)              High      Urban        36.5          2011  10.2
 7 33800 Hinchinbrook (S)            Moderate  Rural        30.5          2011   9.4
 8 33960 Ipswich (C)                 Moderate  Urban        50.1          2011   9.3
 9 32260 Cassowary Coast (R)         Moderate  Urban        34.7          2011   9  
10 37300 Weipa (T)                   Very High Urban        12.8          2011   8.7
# ... with 44 more rows
…
