Benzo-opioid v2 analysis
…
# A tibble: 528 x 5
   lga       n state lga_name                   population
   <chr> <dbl> <chr> <chr>                           <dbl>
 1 32750    10 QLD   Diamantina (S)                    292
 2 40250    10 SA    Anangu Pitjantjatjara (AC)       2733
 3 59030    10 WA    Westonia (S)                      278
 4 70420    10 NT    Barkly (S)                       8111
 5 54970    20 WA    Laverton (S)                     1342
 6 55880    20 WA    Mount Marshall (S)                481
 7 55530    40 WA    Mingenew (S)                      485
 8 74500    40 NT    Victoria-Daly (S)                3390
 9 52380    60 WA    Cue (S)                           293
10 59250    60 WA    Wiluna (S)                       1255
# ... with 518 more rows
…
